23_ESmoothing_Model_Selection
…
From the dataset “tourism” filter those trips with purpose Holiday. The resulting dataset will contain a different time series for each combination of Region and State (pay attentiont at the Key of the tsibble to be able to tell this!)

Fit ETS time series models to each of these time series. Let the model be chosen automatically in terms of the best \(AIC_c\).

Subsequently, generate a report for the best model corresponding to the region of Brisbane. For that same region, examine the evolution of the model states over time.

Finally generate forecasts for each region covering the next eight quarters. Filter out the forecasts for the region of Brisbane and generate a timeplot.

# 1.
holidays <- tourism %>% 
  filter(Purpose == "Holiday")

holidays

# A tsibble: 6,080 x 5 [1Q]
# Key:       Region, State, Purpose [76]
   Quarter Region   State           Purpose Trips
     <qtr> <chr>    <chr>           <chr>   <dbl>
 1 1998 Q1 Adelaide South Australia Holiday  224.
 2 1998 Q2 Adelaide South Australia Holiday  130.
 3 1998 Q3 Adelaide South Australia Holiday  156.
 4 1998 Q4 Adelaide South Australia Holiday  182.
 5 1999 Q1 Adelaide South Australia Holiday  185.
 6 1999 Q2 Adelaide South Australia Holiday  135.
 7 1999 Q3 Adelaide South Australia Holiday  136.
 8 1999 Q4 Adelaide South Australia Holiday  169.
 9 2000 Q1 Adelaide South Australia Holiday  184.
10 2000 Q2 Adelaide South Australia Holiday  134.
# … with 6,070 more rows

# Note that the keys in the resulting tsibble are region, state and purpose. 
# 
# This information is used by the function ETS() to determine the time series
# it needs to fit.

#2. 
fit <- holidays %>% model(ets = ETS(Trips))

fit

# A mable: 76 x 4
# Key:     Region, State, Purpose [76]
   Region                     State              Purpose          ets
   <chr>                      <chr>              <chr>        <model>
 1 Adelaide                   South Australia    Holiday <ETS(A,N,A)>
 2 Adelaide Hills             South Australia    Holiday <ETS(A,A,N)>
 3 Alice Springs              Northern Territory Holiday <ETS(M,N,A)>
 4 Australia's Coral Coast    Western Australia  Holiday <ETS(M,N,A)>
 5 Australia's Golden Outback Western Australia  Holiday <ETS(M,N,M)>
 6 Australia's North West     Western Australia  Holiday <ETS(A,N,A)>
 7 Australia's South West     Western Australia  Holiday <ETS(M,N,M)>
 8 Ballarat                   Victoria           Holiday <ETS(M,N,A)>
 9 Barkly                     Northern Territory Holiday <ETS(A,N,A)>
10 Barossa                    South Australia    Holiday <ETS(A,N,N)>
# … with 66 more rows
…
  Initial states:
    l[0]     b[0]
 310.622 1.958035

  sigma^2:  2365.045

     AIC     AICc      BIC 
977.9429 978.7537 989.8530 

#3. (cont)
fit %>% 
  filter(Region == "Brisbane") %>% 
  components() 

# A dable: 81 x 9 [1Q]
# Key:     Region, State, Purpose, .model [1]
# :        Trips = lag(level, 1) + lag(slope, 1) + remainder
   Region   State      Purpose .model Quarter Trips level   slope remainder
   <chr>    <chr>      <chr>   <chr>    <qtr> <dbl> <dbl>   <dbl>     <dbl>
 1 Brisbane Queensland Holiday ets    1997 Q4   NA   311.  1.96        NA  
 2 Brisbane Queensland Holiday ets    1998 Q1  394.  314.  3.56        81.7
 3 Brisbane Queensland Holiday ets    1998 Q2  239.  316.  2.01       -79.2
 4 Brisbane Queensland Holiday ets    1998 Q3  255.  317.  0.777      -62.8
 5 Brisbane Queensland Holiday ets    1998 Q4  276.  317. -0.0472     -42.1
 6 Brisbane Queensland Holiday ets    1999 Q1  382.  318.  1.24        65.5
 7 Brisbane Queensland Holiday ets    1999 Q2  331.  320.  1.47        12.0
 8 Brisbane Queensland Holiday ets    1999 Q3  335.  321.  1.75        14.2
 9 Brisbane Queensland Holiday ets    1999 Q4  287.  322.  1.04       -36.4
10 Brisbane Queensland Holiday ets    2000 Q1  339.  324.  1.34        15.4
# … with 71 more rows
…
#4. 
fc <- fit %>% forecast(h=8)
fc

# A fable: 608 x 7 [1Q]
# Key:     Region, State, Purpose, .model [76]
   Region         State           Purpose .model Quarter       Trips .mean
   <chr>          <chr>           <chr>   <chr>    <qtr>      <dist> <dbl>
 1 Adelaide       South Australia Holiday ets    2018 Q1 N(210, 457) 210. 
 2 Adelaide       South Australia Holiday ets    2018 Q2 N(173, 473) 173. 
 3 Adelaide       South Australia Holiday ets    2018 Q3 N(169, 489) 169. 
 4 Adelaide       South Australia Holiday ets    2018 Q4 N(186, 505) 186. 
 5 Adelaide       South Australia Holiday ets    2019 Q1 N(210, 521) 210. 
 6 Adelaide       South Australia Holiday ets    2019 Q2 N(173, 537) 173. 
 7 Adelaide       South Australia Holiday ets    2019 Q3 N(169, 553) 169. 
 8 Adelaide       South Australia Holiday ets    2019 Q4 N(186, 569) 186. 
 9 Adelaide Hills South Australia Holiday ets    2018 Q1   N(19, 36)  19.4
10 Adelaide Hills South Australia Holiday ets    2018 Q2   N(20, 36)  19.6
# … with 598 more rows
…
