Time_Series_Regression_II
…
Piecewise trend. Example

Let us look at the downwards trend of the Boston marathon times.

We extract mens data and convert winning times to a numerical value. we first fit a linear trend model:

boston_men <- boston_marathon %>%
  filter(Year >= 1924) %>%
  filter(Event == "Men's open division") %>%
  mutate(Minutes = as.numeric(Time)/60) %>%
  select(Year, Minutes)

boston_men

# A tsibble: 96 x 2 [1Y]
    Year Minutes
   <int>   <dbl>
 1  1924    150.
 2  1925    153 
 3  1926    146.
 4  1927    160.
 5  1928    157.
 6  1929    153.
 7  1930    155.
 8  1931    167.
 9  1932    154.
10  1933    151.
# ... with 86 more rows
…
AICs <- metrics %>% pull(AIC)

We can see that the model with the best AIC includes 5 pairs of Fourier terms. Adding an additional pair (K=6) does not substantially increase the AIC

fc <- fit %>%
  forecast(h = 12)

fc

# A fable: 72 x 4 [1M]
# Key:     .model [6]
   .model    Month          Turnover .mean
   <chr>     <mth>            <dist> <dbl>
 1 K1     2019 Jan t(N(8.3, 0.0024)) 4098.
 2 K1     2019 Feb t(N(8.3, 0.0024)) 4044.
 3 K1     2019 Mar t(N(8.3, 0.0024)) 4001.
 4 K1     2019 Apr t(N(8.3, 0.0024)) 3987.
 5 K1     2019 May t(N(8.3, 0.0024)) 4008.
 6 K1     2019 Jun t(N(8.3, 0.0024)) 4066.
 7 K1     2019 Jul t(N(8.3, 0.0024)) 4150.
 8 K1     2019 Aug t(N(8.4, 0.0024)) 4244.
 9 K1     2019 Sep t(N(8.4, 0.0024)) 4329.
10 K1     2019 Oct t(N(8.4, 0.0024)) 4385.
# ... with 62 more rows
…
Create a dummy variable that takes value 1 (TRUE) for every march exept for the year 1987 and 0 (FALSE) for the rest

souvenirs_dummy <- souvenirs %>%
  mutate(dummy_fest = (month(Month) == 3) & (year(Month) != 1987))

souvenirs_dummy

# A tsibble: 84 x 3 [1M]
      Month Sales dummy_fest
      <mth> <dbl> <lgl>     
 1 1987 Jan 1665. FALSE     
 2 1987 Feb 2398. FALSE     
 3 1987 Mar 2841. FALSE     
 4 1987 Apr 3547. FALSE     
 5 1987 May 3753. FALSE     
 6 1987 Jun 3715. FALSE     
 7 1987 Jul 4350. FALSE     
 8 1987 Aug 3566. FALSE     
 9 1987 Sep 5022. FALSE     
10 1987 Oct 6423. FALSE     
# ... with 74 more rows
…
